﻿{
    "configurations": [
        {
            "buildCommandArgs": "-v:minimal",
            "buildRoot": "${env.buildDir}\\${name}",
            "cmakeCommandArgs": "${env.cmakeArgs} -DCMAKE_BUILD_TYPE:STRING=${configurationType} -DENABLE_LOGGING:BOOL=ON",
            "configurationType": "Debug",
            "ctestCommandArgs": "",
            "generator": "Visual Studio 15 2017 Win64",
            "inheritEnvironments": [ "msvc_x64_x64" ],
            "installRoot": "${env.installDir}\\${name}",
            "intelliSenseMode": "windows-msvc-x64",
            "name": "VC-x64-Debug"
        },
        {
            "buildCommandArgs": "-v:minimal",
            "buildRoot": "${env.buildDir}\\${name}",
            "cmakeCommandArgs": "${env.cmakeArgs}",
            "configurationType": "Release",
            "ctestCommandArgs": "",
            "generator": "Visual Studio 15 2017 Win64",
            "inheritEnvironments": [ "msvc_x64_x64" ],
            "installRoot": "${env.installDir}\\${name} -DCMAKE_BUILD_TYPE:STRING=${configurationType}",
            "intelliSenseMode": "windows-msvc-x64",
            "name": "VC-x64-Release"
        }
    ],
    "environments": [
        {
            "buildDir": "${workspaceRoot}\\build",
            "cmakeArgs": "-DBUILD_TESTING:BOOL=ON -DBUILD_HOST:BOOL=OFF",
            "installDir": "${workspaceRoot}\\install"
        }
    ]
}